temp/seq.vcd
$timescale 1ns $end
$scope module loop1 $end
$var reg 9 1 DDS_#1_State [8:0] $end
$var reg 9 2 DDS_#1_Self_State [8:0] $end
$var reg 1 5 DDS_#1_Ramp_Ch0_&_Ch1 $end
$var wire 1 6 DDS_#1_Trigger $end
$var reg 9 7 DDS_#4_State [8:0] $end
$var reg 9 8 DDS_#4_Self_State [8:0] $end
$var wire 1 12 DDS_#4_Trigger $end
$var reg 9 14 DDS_#5_Self_State [8:0] $end
$var real 64 20 DAC8_#1_AOM_3DMOT_Down $end
$var real 64 21 DAC8_#1_AOM_3DMOT_Up $end
$var real 64 22 DAC8_#1_AOM_Detection $end
$var real 64 23 DAC8_#1_AOM_Raman1 $end
$var real 64 24 DAC8_#1_AOM_Raman2 $end
$var real 64 31 DAC8_#2_Bias_X $end
$var real 64 32 DAC8_#2_Self_Ch__2 $end
$var real 64 33 DAC8_#2_Bias_Y $end
$var real 64 35 DAC8_#2_Bias_Z $end
$var real 64 37 DAC8_#2_Self_Ch__7 $end
$var reg 1 40 TTL1_D0____Raman_Down $end
$var reg 1 41 TTL1_D1____Raman_Up $end
$var reg 1 42 TTL1_D2_____Repump_MOT $end
$var reg 1 43 TTL1_D3_____Repump_Push $end
$var reg 1 44 TTL1_D4_____Repump_Det $end
$var reg 1 45 TTL1_D5_____Detection $end
$var reg 1 46 TTL1_D6_____3DMOT_Up $end
$var reg 1 47 TTL1_D7_____3DMOT_Down $end
$var reg 1 48 TTL1_D8_____2DMOT $end
$var reg 1 49 TTL1_D9_____AOM_Raman1 $end
$var reg 1 50 TTL1_D10____AOM_Raman2 $end
$var reg 1 51 TTL1_D11___AOM_3DMOT_Up $end
$var reg 1 52 TTL1_D12___AOM_Detection $end
$var reg 1 53 TTL1_D13___AOM_3DMOT_Down $end
$var reg 1 60 TTL2_D0____Experiment_Trig $end
$var reg 1 63 TTL2_D3____Bragg_Up $end
$var reg 1 65 TTL2_D5____Bias_Coils $end
$var reg 1 66 TTL2_D6____Bias_Bars $end
$var reg 1 67 TTL2_D7____3DMOT_Coils $end
$var reg 1 68 TTL2_D8____Redpitaya $end
$enddefinitions $end
$dumpvars
b000000000 2
b000000000 14
bxxxxxxxxx 1
x5
x6
bxxxxxxxxx 7
bxxxxxxxxx 8
x12
x40
x41
x42
x43
x44
x45
x46
x47
x48
x49
x50
x51
x52
x53
x60
x63
x65
x66
x67
x68
$end
#100
#2000
r5.12 31
#4000
r4.93 33
#6000
r4.93 35
#6200
r7 32
#7200
r0 37
#8200
068
#1008200
167
#1010200
065
#1030200
b000000000 2
#1050200
b000000000 8
#1070200
b000000000 14
#1080200
112
#1080300
012
#1080200
#1090200
148
#1100200
146
#1110200
147
#1120200
045
#1122200
040
#1124200
041
#1134200
142
#1144200
043
#1145200
163
#1155200
049
#1165200
150
#1265200
r0.95 21
#1295200
r0.95 20
#1315200
r0.2 22
#1325200
052
#1355200
r0.95 23
#1375200
r0.95 24
#301375200
b000000100 1
#351375200
048
#351430200
067
#351431200
16
#351431300
06
#351431200
#351432200
b000000110 7
#353432200
b000000011 1
#363432200
112
#363432300
012
#363432200
#363433200
16
#363433300
06
#363433200
#364133200
b000000001 2
#364153200
15
#366153200
r0.939562 21
#366158200
r0.939562 20
#366163200
r0.939562 23
#366168200
r0.933349 21
#366173200
r0.933349 20
#366178200
r0.933349 23
#366183200
r0.9235409999999999 21
#366188200
r0.9235409999999999 20
#366193200
r0.939562 23
#366198200
r0.908215 21
#366203200
r0.908215 20
#366208200
r0.939562 23
#366213200
r0.88464 21
#366218200
r0.88464 20
#366223200
r0.939562 23
#366228200
r0.849238 21
#366233200
r0.849238 20
#366238200
r0.939562 23
#366243200
r0.797957 21
#366248200
r0.797957 20
#366253200
r0.939562 23
#366258200
r0.727419 21
#366263200
r0.727419 20
#366268200
r0.939562 23
#366273200
r0.636992 21
#366278200
r0.636992 20
#366283200
r0.939562 23
#366288200
r0.530989 21
#366293200
r0.530989 20
#366298200
r0.939562 23
#366303200
r0.419011 21
#366308200
r0.419011 20
#366313200
r0.939562 23
#366318200
r0.313008 21
#366323200
r0.313008 20
#366328200
r0.939562 23
#366333200
r0.222581 21
#366338200
r0.222581 20
#366343200
r0.939562 23
#366348200
r0.152043 21
#366353200
r0.152043 20
#366358200
r0.939562 23
#366363200
r0.100762 21
#366368200
r0.100762 20
#366373200
r0.939562 23
#366378200
r0.06536 21
#366383200
r0.06536 20
#366388200
r0.939562 23
#366393200
r0.041785 21
#366398200
r0.041785 20
#366403200
r0.939562 23
#366408200
r0.026459 21
#366413200
r0.026459 20
#366418200
r0.939562 23
#366423200
r0.016651 21
#366428200
r0.016651 20
#366433200
r0.939562 23
#366438200
r0.01 21
#366443200
r0.01 20
#366448200
r0.939562 23
#368448200
151
#368449200
165
#368451200
r5 31
#368453200
r5 33
#368455200
r5 35
#368455400
149
#368456400
153
#368457400
042
#368471400
046
#368481400
047
#368483400
166
#373483400
053
#373485400
051
#373490400
r0.95 21
#373495400
r0.95 20
#373496400
r0.245 23
#373498400
r0.345 24
#373516400
b001010110 2
#405216400
149
#405218400
140
#419051400
049
#419161400
149
#419163400
040
#424163400
049
#424165400
r0.9 22
#424167400
b000001111 2
#424169400
152
#424171400
145
#433551400
052
#434471400
152
#434473400
045
#439473400
052
#439475400
r0.365 23
#439477400
r0.95 24
#439479400
r1 22
#439499400
b011010100 2
#448054400
149
#448056400
041
#454312400
049
#454347400
149
#454349400
041
#461572400
049
#461574400
r0.25 23
#461576400
b000000110 2
#461578400
149
#461580400
043
#471106400
049
#471206400
149
#471207400
063
#471207600
r7 32
#471209400
043
#476729400
049
#476731400
r0.345 23
#476733400
r0.59 24
#776733400
r7 32
#776734400
r7 37
#777234400
163
#777334400
063
#1077334400
b101010100 2
#1078434400
149
#1078436400
141
#1078438400
152
#1078440400
145
#1090440400
049
#1090540400
149
#1090541400
163
#1090541600
r7 32
#1090543400
041
#1090545400
b000001110 2
#1090547400
r0.2 23
#1090549400
149
#1090551400
144
#1096757400
052
#1096759400
049
#1098759400
168
#1098760400
r7 37
#1197760400
149
#1197762400
152
#1197764400
045
#1202764400
052
#1202766400
044
#1207766400
049
#1208766400
068
#1208767400
r0 37
#1208769400
r0.95 23
#1208771400
r0.95 24
#1208773400
066
#1208776400
060
#1208781400
b000000000 2
#1208786400
b000000000 8
#1208791400
b000000000 14
