temp/seq.vcd
$timescale 1ns $end
$scope module loop1 $end
$var reg 9 1 DDS_#1_State [8:0] $end
$var reg 9 2 DDS_#1_Self_State [8:0] $end
$var reg 1 5 DDS_#1_Ramp_Ch0_&_Ch1 $end
$var wire 1 6 DDS_#1_Trigger $end
$var reg 9 7 DDS_#4_State [8:0] $end
$var reg 9 8 DDS_#4_Self_State [8:0] $end
$var wire 1 12 DDS_#4_Trigger $end
$var reg 9 14 DDS_#5_Self_State [8:0] $end
$var real 64 20 DAC8_#1_AOM_3DMOT_Down $end
$var real 64 21 DAC8_#1_AOM_3DMOT_Up $end
$var real 64 22 DAC8_#1_AOM_Detection $end
$var real 64 23 DAC8_#1_AOM_Raman1 $end
$var real 64 24 DAC8_#1_AOM_Raman2 $end
$var real 64 31 DAC8_#2_Bias_X $end
$var real 64 32 DAC8_#2_Self_Ch__2 $end
$var real 64 33 DAC8_#2_Bias_Y $end
$var real 64 35 DAC8_#2_Bias_Z $end
$var real 64 37 DAC8_#2_Self_Ch__7 $end
$var reg 1 40 TTL1_D0____Raman_Down $end
$var reg 1 41 TTL1_D1____Raman_Up $end
$var reg 1 42 TTL1_D2_____Repump_MOT $end
$var reg 1 43 TTL1_D3_____Repump_Push $end
$var reg 1 44 TTL1_D4_____Repump_Det $end
$var reg 1 45 TTL1_D5_____Detection $end
$var reg 1 46 TTL1_D6_____3DMOT_Up $end
$var reg 1 47 TTL1_D7_____3DMOT_Down $end
$var reg 1 48 TTL1_D8_____2DMOT $end
$var reg 1 49 TTL1_D9_____AOM_Raman1 $end
$var reg 1 50 TTL1_D10____AOM_Raman2 $end
$var reg 1 51 TTL1_D11___AOM_3DMOT_Up $end
$var reg 1 52 TTL1_D12___AOM_Detection $end
$var reg 1 53 TTL1_D13___AOM_3DMOT_Down $end
$var reg 1 60 TTL2_D0____Experiment_Trig $end
$var reg 1 63 TTL2_D3____Bragg_Up $end
$var reg 1 65 TTL2_D5____Bias_Coils $end
$var reg 1 66 TTL2_D6____Bias_Bars $end
$var reg 1 67 TTL2_D7____3DMOT_Coils $end
$var reg 1 68 TTL2_D8____Redpitaya $end
$enddefinitions $end
$dumpvars
b000000000 2
b000000000 14
bxxxxxxxxx 1
x5
x6
bxxxxxxxxx 7
bxxxxxxxxx 8
x12
x40
x41
x42
x43
x44
x45
x46
x47
x48
x49
x50
x51
x52
x53
x60
x63
x65
x66
x67
x68
$end
#100
#2000
r5.12 31
#4000
r4.93 33
#6000
r4.93 35
#6200
r7 32
#7200
r0 37
#8200
068
#1008200
167
#1010200
065
#1030200
b000000000 2
#1050200
b000000000 8
#1070200
b000000000 14
#1080200
112
#1080300
012
#1080200
#1090200
148
#1100200
146
#1110200
147
#1120200
045
#1122200
040
#1124200
041
#1134200
142
#1144200
043
#1145200
163
#1155200
049
#1165200
150
#1265200
r0.95 21
#1295200
r0.95 20
#1315200
r0.2 22
#1325200
052
#1355200
r0.95 23
#1375200
r0.95 24
#301375200
b000000100 1
#351375200
048
#351430200
067
#351431200
16
#351431300
06
#351431200
#351432200
b000000110 7
#353432200
b000000011 1
#363432200
112
#363432300
012
#363432200
#363433200
16
#363433300
06
#363433200
#363435200
160
#364135200
b000000001 2
#364155200
15
#366155200
r0.939562 21
#366160200
r0.939562 20
#366165200
r0.939562 23
#366170200
r0.933349 21
#366175200
r0.933349 20
#366180200
r0.933349 23
#366185200
r0.9235409999999999 21
#366190200
r0.9235409999999999 20
#366195200
r0.939562 23
#366200200
r0.908215 21
#366205200
r0.908215 20
#366210200
r0.939562 23
#366215200
r0.88464 21
#366220200
r0.88464 20
#366225200
r0.939562 23
#366230200
r0.849238 21
#366235200
r0.849238 20
#366240200
r0.939562 23
#366245200
r0.797957 21
#366250200
r0.797957 20
#366255200
r0.939562 23
#366260200
r0.727419 21
#366265200
r0.727419 20
#366270200
r0.939562 23
#366275200
r0.636992 21
#366280200
r0.636992 20
#366285200
r0.939562 23
#366290200
r0.530989 21
#366295200
r0.530989 20
#366300200
r0.939562 23
#366305200
r0.419011 21
#366310200
r0.419011 20
#366315200
r0.939562 23
#366320200
r0.313008 21
#366325200
r0.313008 20
#366330200
r0.939562 23
#366335200
r0.222581 21
#366340200
r0.222581 20
#366345200
r0.939562 23
#366350200
r0.152043 21
#366355200
r0.152043 20
#366360200
r0.939562 23
#366365200
r0.100762 21
#366370200
r0.100762 20
#366375200
r0.939562 23
#366380200
r0.06536 21
#366385200
r0.06536 20
#366390200
r0.939562 23
#366395200
r0.041785 21
#366400200
r0.041785 20
#366405200
r0.939562 23
#366410200
r0.026459 21
#366415200
r0.026459 20
#366420200
r0.939562 23
#366425200
r0.016651 21
#366430200
r0.016651 20
#366435200
r0.939562 23
#366440200
r0.01 21
#366445200
r0.01 20
#366450200
r0.939562 23
#368450200
151
#368451200
165
#368453200
r5 31
#368455200
r5 33
#368457200
r5 35
#368457400
149
#368458400
153
#368459400
042
#368473400
046
#368483400
047
#368485400
166
#373485400
053
#373487400
051
#373492400
r0.95 21
#373497400
r0.95 20
#373498400
r0.245 23
#373500400
r0.345 24
#373518400
b001010111 2
#405218400
149
#405220400
140
#419053400
049
#419163400
149
#419165400
040
#424165400
049
#424167400
r0.9 22
#424169400
b000001111 2
#424171400
152
#424173400
145
#433553400
052
#434473400
152
#434475400
045
#439475400
052
#439477400
r0.365 23
#439479400
r0.95 24
#439481400
r1 22
#439501400
b011010100 2
#448056400
149
#448058400
041
#454314400
049
#454349400
149
#454351400
041
#461574400
049
#461576400
r0.25 23
#461578400
b000000110 2
#461580400
149
#461582400
043
#471108400
049
#471208400
149
#471209400
063
#471209600
r7 32
#471211400
043
#476731400
049
#476733400
r0.365 23
#476735400
r0.95 24
#786735400
r7 32
#794735400
163
#794772400
063
#1125861400
b101100100 2
#1126961400
149
#1126963400
141
#1126965400
152
#1126967400
145
#1138967400
049
#1139012400
149
#1139013400
163
#1139013600
r7 32
#1139015400
041
#1139017400
b000001110 2
#1139019400
r0.2 23
#1139021400
149
#1139023400
144
#1145268400
052
#1145270400
049
#1147270400
168
#1147271400
r7 37
#1246271400
149
#1246273400
152
#1246275400
045
#1251275400
052
#1251277400
044
#1256277400
049
#1257277400
068
#1257278400
r0 37
#1257280400
r0.95 23
#1257282400
066
#1257285400
060
#1257290400
b000000000 2
#1257295400
b000000000 8
#1257300400
b000000000 14
